{
    "cordova-plugin-console": {
        "source": {
            "type": "registry",
            "id": "cordova-plugin-console@1.0.5"
        },
        "is_top_level": true,
        "variables": {}
    },
    "cordova-plugin-device": {
        "source": {
            "type": "registry",
            "id": "cordova-plugin-device@1.1.4"
        },
        "is_top_level": true,
        "variables": {}
    },
    "cordova-plugin-splashscreen": {
        "source": {
            "type": "registry",
            "id": "cordova-plugin-splashscreen@~4.0.1"
        },
        "is_top_level": true,
        "variables": {}
    },
    "cordova-plugin-statusbar": {
        "source": {
            "type": "registry",
            "id": "cordova-plugin-statusbar@2.2.2"
        },
        "is_top_level": true,
        "variables": {}
    },
    "cordova-plugin-whitelist": {
        "source": {
            "type": "registry",
            "id": "cordova-plugin-whitelist@1.3.1"
        },
        "is_top_level": true,
        "variables": {}
    },
    "ionic-plugin-keyboard": {
        "source": {
            "type": "registry",
            "id": "ionic-plugin-keyboard@~2.2.1"
        },
        "is_top_level": true,
        "variables": {}
    },
    "com.googlemaps.ios": {
        "source": {
            "type": "registry",
            "id": "https://github.com/mapsplugin/cordova-plugin-googlemaps-sdk"
        },
        "is_top_level": false,
        "variables": {}
    },
    "cordova-plugin-googlemaps": {
        "source": {
            "type": "registry",
            "id": "cordova-plugin-googlemaps"
        },
        "is_top_level": true,
        "variables": {
            "API_KEY_FOR_ANDROID": "AIzaSyDVOCdZnuNiXQkN48Wm6VVyXnqqmearRfI",
            "API_KEY_FOR_IOS": "AIzaSyDvepiBopY8AXG8_rMZIh5TIfNwjr4_xIM"
        }
    },
    "cordova-plugin-geolocation": {
        "source": {
            "type": "registry",
            "id": "cordova-plugin-geolocation"
        },
        "is_top_level": true,
        "variables": {}
    },
    "cordova-plugin-compat": {
        "source": {
            "type": "registry",
            "id": "cordova-plugin-compat@^1.0.0"
        },
        "is_top_level": false,
        "variables": {}
    },
    "cordova-plugin-nativegeocoder": {
        "source": {
            "type": "registry",
            "id": "cordova-plugin-nativegeocoder"
        },
        "is_top_level": true,
        "variables": {}
    },
    "cordova-plugin-add-swift-support": {
        "source": {
            "type": "registry",
            "id": "cordova-plugin-add-swift-support@1.6.0"
        },
        "is_top_level": false,
        "variables": {}
    },
    "uk.co.workingedge.phonegap.plugin.launchnavigator": {
        "source": {
            "type": "registry",
            "id": "uk.co.workingedge.phonegap.plugin.launchnavigator"
        },
        "is_top_level": true,
        "variables": {}
    },
    "cordova-plugin-actionsheet": {
        "source": {
            "type": "registry",
            "id": "cordova-plugin-actionsheet@2"
        },
        "is_top_level": false,
        "variables": {}
    },
    "cordova-plugin-dialogs": {
        "source": {
            "type": "registry",
            "id": "cordova-plugin-dialogs@1"
        },
        "is_top_level": false,
        "variables": {}
    },
    "cordova-plugin-facebook4": {
        "source": {
            "type": "registry",
            "id": "cordova-plugin-facebook4"
        },
        "is_top_level": true,
        "variables": {
            "APP_ID": "1955784128035720",
            "APP_NAME": "Ionic Demo"
        }
    }
}